Library\Bee\artifacts\movedfrom\UnityEditor.TestRunner.ref.dll_1819107689489022899.movedfrom
Library\Bee\artifacts\movedfrom\UnityEditor.UI.ref.dll_5519394401220875509.movedfrom
Library\Bee\artifacts\movedfrom\UnityEngine.TestRunner.ref.dll_16527383234446630302.movedfrom
Library\Bee\artifacts\movedfrom\UnityEngine.UI.ref.dll_648142665722821984.movedfrom
Library\Bee\artifacts\movedfrom\UnityEditor.Graphs.dll_5763537540214774491.movedfrom
Library\Bee\artifacts\movedfrom\UnityEditor.CoreModule.dll_11042332391747074473.movedfrom
Library\Bee\artifacts\movedfrom\UnityEditor.DeviceSimulatorModule.dll_11864828230898156392.movedfrom
Library\Bee\artifacts\movedfrom\UnityEditor.dll_3147532391232266140.movedfrom
Library\Bee\artifacts\movedfrom\UnityEditor.GraphViewModule.dll_17755509423072797901.movedfrom
Library\Bee\artifacts\movedfrom\UnityEditor.PackageManagerUIModule.dll_11691906078804835781.movedfrom
Library\Bee\artifacts\movedfrom\UnityEditor.QuickSearchModule.dll_13166831575722235919.movedfrom
Library\Bee\artifacts\movedfrom\UnityEditor.SceneTemplateModule.dll_10695565627262008944.movedfrom
Library\Bee\artifacts\movedfrom\UnityEditor.UIBuilderModule.dll_5400074183077223937.movedfrom
Library\Bee\artifacts\movedfrom\UnityEditor.UIElementsModule.dll_15663031700027355717.movedfrom
Library\Bee\artifacts\movedfrom\UnityEditor.UIElementsSamplesModule.dll_17396639872510990968.movedfrom
Library\Bee\artifacts\movedfrom\UnityEditor.UIServiceModule.dll_9503435510082350619.movedfrom
Library\Bee\artifacts\movedfrom\UnityEditor.UnityConnectModule.dll_7296022373310938335.movedfrom
Library\Bee\artifacts\movedfrom\UnityEngine.AccessibilityModule.dll_14345006996607641101.movedfrom
Library\Bee\artifacts\movedfrom\UnityEngine.AIModule.dll_7152860157619170525.movedfrom
Library\Bee\artifacts\movedfrom\UnityEngine.AndroidJNIModule.dll_6316066667582431515.movedfrom
Library\Bee\artifacts\movedfrom\UnityEngine.AnimationModule.dll_14190202407982971251.movedfrom
Library\Bee\artifacts\movedfrom\UnityEngine.ARModule.dll_2069075746509081510.movedfrom
Library\Bee\artifacts\movedfrom\UnityEngine.AssetBundleModule.dll_18060330058156395777.movedfrom
Library\Bee\artifacts\movedfrom\UnityEngine.AudioModule.dll_14012675816039974309.movedfrom
Library\Bee\artifacts\movedfrom\UnityEngine.ClothModule.dll_2981210761266848905.movedfrom
Library\Bee\artifacts\movedfrom\UnityEngine.ClusterInputModule.dll_16491375648527880101.movedfrom
Library\Bee\artifacts\movedfrom\UnityEngine.ClusterRendererModule.dll_12273743689543651564.movedfrom
Library\Bee\artifacts\movedfrom\UnityEngine.CoreModule.dll_13573587734288999636.movedfrom
Library\Bee\artifacts\movedfrom\UnityEngine.CrashReportingModule.dll_857836073046574316.movedfrom
Library\Bee\artifacts\movedfrom\UnityEngine.DirectorModule.dll_2293297154473068529.movedfrom
Library\Bee\artifacts\movedfrom\UnityEngine.dll_6796651884420721793.movedfrom
Library\Bee\artifacts\movedfrom\UnityEngine.DSPGraphModule.dll_2676491703294679314.movedfrom
Library\Bee\artifacts\movedfrom\UnityEngine.GameCenterModule.dll_9364240669237875212.movedfrom
Library\Bee\artifacts\movedfrom\UnityEngine.GIModule.dll_18122583272782189815.movedfrom
Library\Bee\artifacts\movedfrom\UnityEngine.GridModule.dll_11083409324754189003.movedfrom
Library\Bee\artifacts\movedfrom\UnityEngine.HotReloadModule.dll_5059363095850964213.movedfrom
Library\Bee\artifacts\movedfrom\UnityEngine.ImageConversionModule.dll_1605276581819173088.movedfrom
Library\Bee\artifacts\movedfrom\UnityEngine.IMGUIModule.dll_18074816468712069510.movedfrom
Library\Bee\artifacts\movedfrom\UnityEngine.InputLegacyModule.dll_10081388711551599346.movedfrom
Library\Bee\artifacts\movedfrom\UnityEngine.InputModule.dll_2948958467185781321.movedfrom
Library\Bee\artifacts\movedfrom\UnityEngine.JSONSerializeModule.dll_2822416765781673623.movedfrom
Library\Bee\artifacts\movedfrom\UnityEngine.LocalizationModule.dll_2533816959477482142.movedfrom
Library\Bee\artifacts\movedfrom\UnityEngine.ParticleSystemModule.dll_6843763520388370554.movedfrom
Library\Bee\artifacts\movedfrom\UnityEngine.PerformanceReportingModule.dll_4965686506412739987.movedfrom
Library\Bee\artifacts\movedfrom\UnityEngine.Physics2DModule.dll_1266542669085323528.movedfrom
Library\Bee\artifacts\movedfrom\UnityEngine.PhysicsModule.dll_13421542744377722646.movedfrom
Library\Bee\artifacts\movedfrom\UnityEngine.ProfilerModule.dll_5915943011403009790.movedfrom
Library\Bee\artifacts\movedfrom\UnityEngine.RuntimeInitializeOnLoadManagerInitializerModule.dll_14439906567653962193.movedfrom
Library\Bee\artifacts\movedfrom\UnityEngine.ScreenCaptureModule.dll_4689068123434922745.movedfrom
Library\Bee\artifacts\movedfrom\UnityEngine.SharedInternalsModule.dll_11121733155978200112.movedfrom
Library\Bee\artifacts\movedfrom\UnityEngine.SpriteMaskModule.dll_7719426868702619526.movedfrom
Library\Bee\artifacts\movedfrom\UnityEngine.SpriteShapeModule.dll_1442378775753590027.movedfrom
Library\Bee\artifacts\movedfrom\UnityEngine.StreamingModule.dll_8755744486841086129.movedfrom
Library\Bee\artifacts\movedfrom\UnityEngine.SubstanceModule.dll_6209825627522100927.movedfrom
Library\Bee\artifacts\movedfrom\UnityEngine.SubsystemsModule.dll_15406339577952604057.movedfrom
Library\Bee\artifacts\movedfrom\UnityEngine.TerrainModule.dll_15314879153696231428.movedfrom
Library\Bee\artifacts\movedfrom\UnityEngine.TerrainPhysicsModule.dll_6878289092162456327.movedfrom
Library\Bee\artifacts\movedfrom\UnityEngine.TextCoreModule.dll_13298638798051506177.movedfrom
Library\Bee\artifacts\movedfrom\UnityEngine.TextRenderingModule.dll_7661287792871846638.movedfrom
Library\Bee\artifacts\movedfrom\UnityEngine.TilemapModule.dll_8324280436257075469.movedfrom
Library\Bee\artifacts\movedfrom\UnityEngine.TLSModule.dll_209686738660270698.movedfrom
Library\Bee\artifacts\movedfrom\UnityEngine.UIElementsModule.dll_15712128502018100112.movedfrom
Library\Bee\artifacts\movedfrom\UnityEngine.UIElementsNativeModule.dll_17058425063740337639.movedfrom
Library\Bee\artifacts\movedfrom\UnityEngine.UIModule.dll_6825115727410131593.movedfrom
Library\Bee\artifacts\movedfrom\UnityEngine.UmbraModule.dll_4416820131467604248.movedfrom
Library\Bee\artifacts\movedfrom\UnityEngine.UNETModule.dll_5694056303596673613.movedfrom
Library\Bee\artifacts\movedfrom\UnityEngine.UnityAnalyticsModule.dll_9122427468340126326.movedfrom
Library\Bee\artifacts\movedfrom\UnityEngine.UnityConnectModule.dll_5953813409245445514.movedfrom
Library\Bee\artifacts\movedfrom\UnityEngine.UnityCurlModule.dll_17873198236971019104.movedfrom
Library\Bee\artifacts\movedfrom\UnityEngine.UnityTestProtocolModule.dll_12479472081872187342.movedfrom
Library\Bee\artifacts\movedfrom\UnityEngine.UnityWebRequestAssetBundleModule.dll_17081634011849682375.movedfrom
Library\Bee\artifacts\movedfrom\UnityEngine.UnityWebRequestAudioModule.dll_13611564106260240427.movedfrom
Library\Bee\artifacts\movedfrom\UnityEngine.UnityWebRequestModule.dll_2875018628670579551.movedfrom
Library\Bee\artifacts\movedfrom\UnityEngine.UnityWebRequestTextureModule.dll_14957261772518486368.movedfrom
Library\Bee\artifacts\movedfrom\UnityEngine.UnityWebRequestWWWModule.dll_6856377786558311772.movedfrom
Library\Bee\artifacts\movedfrom\UnityEngine.VehiclesModule.dll_10923031316374083468.movedfrom
Library\Bee\artifacts\movedfrom\UnityEngine.VFXModule.dll_9495713822156131287.movedfrom
Library\Bee\artifacts\movedfrom\UnityEngine.VideoModule.dll_16681485664299458890.movedfrom
Library\Bee\artifacts\movedfrom\UnityEngine.VirtualTexturingModule.dll_1245359260310400626.movedfrom
Library\Bee\artifacts\movedfrom\UnityEngine.VRModule.dll_12792990539015321601.movedfrom
Library\Bee\artifacts\movedfrom\UnityEngine.WindModule.dll_3651835772519818045.movedfrom
Library\Bee\artifacts\movedfrom\UnityEngine.XRModule.dll_16449564910736328031.movedfrom
Library\Bee\artifacts\movedfrom\UnityEditor.WindowsStandalone.Extensions.dll_2771704801961587591.movedfrom